…
Install and load the development version of biooracler from GitHub with:

```
{devtools::install_github("bio-oracle/biooracler")

library(biooracler)
```

You can view the available datasets with:

```
# you can see more datasets by increasing the n 
print(list_layers(), n = 10)
# A tibble: 356 × 3
   dataset_id                       title                                                     summary                            
   <chr>                            <chr>                                                     <chr>                              
 1 tas_baseline_2000_2020_depthsurf Bio-Oracle AirTemperature [depthSurf] Baseline 2000-2020. "Uses attributes recommended by ht…
 2 tas_ssp119_2020_2100_depthsurf   Bio-Oracle AirTemperature [depthSurf] SSP119 2020-2100.   "Uses attributes recommended by ht…
 3 tas_ssp126_2020_2100_depthsurf   Bio-Oracle AirTemperature [depthSurf] SSP126 2020-2100.   "Uses attributes recommended by ht…
 4 tas_ssp245_2020_2100_depthsurf   Bio-Oracle AirTemperature [depthSurf] SSP245 2020-2100.   "Uses attributes recommended by ht…
 5 tas_ssp370_2020_2100_depthsurf   Bio-Oracle AirTemperature [depthSurf] SSP370 2020-2100.   "Uses attributes recommended by ht…
 6 tas_ssp460_2020_2100_depthsurf   Bio-Oracle AirTemperature [depthSurf] SSP460 2020-2100.   "Uses attributes recommended by ht…
 7 tas_ssp585_2020_2100_depthsurf   Bio-Oracle AirTemperature [depthSurf] SSP585 2020-2100.   "Uses attributes recommended by ht…
 8 chl_baseline_2000_2018_depthmax  Bio-Oracle Chlorophyll [depthMax] Baseline 2000-2018.     "Uses attributes recommended by ht…
 9 chl_baseline_2000_2018_depthmean Bio-Oracle Chlorophyll [depthMean] Baseline 2000-2018.    "Uses attributes recommended by ht…
10 chl_baseline_2000_2018_depthmin  Bio-Oracle Chlorophyll [depthMin] Baseline 2000-2018.     "Uses attributes recommended by ht…
# ℹ 346 more rows
# ℹ Use `print(n = ...)` to see more rows
…
